<?xml version="1.0" encoding="utf-8"?>
<!-- Generator: Adobe Illustrator 21.0.0, SVG Export Plug-In . SVG Version: 6.00 Build 0)  -->
<svg version="1.1" id="Layer_1" xmlns="http://www.w3.org/2000/svg" xmlns:xlink="http://www.w3.org/1999/xlink" x="0px" y="0px"
	 viewBox="0 0 100 100" style="enable-background:new 0 0 100 100;" xml:space="preserve">
<style type="text/css">
	.st0{fill:none;stroke:#383838;stroke-width:10;stroke-miterlimit:10;}
</style>
<g>
	<line class="st0" x1="89" y1="89" x2="10" y2="10"/>
</g>
<g>
	<line class="st0" x1="10" y1="89" x2="89" y2="10"/>
</g>
</svg>
