<?xml version="1.0" encoding="utf-8"?>
<!-- Generator: Adobe Illustrator 21.0.0, SVG Export Plug-In . SVG Version: 6.00 Build 0)  -->
<svg version="1.1" id="Layer_1" xmlns="http://www.w3.org/2000/svg" xmlns:xlink="http://www.w3.org/1999/xlink" x="0px" y="0px"
	 viewBox="0 0 60 60" style="enable-background:new 0 0 60 60;" xml:space="preserve">
<style type="text/css">
	.st0{fill:#FFFFFF;}
	.st1{fill:#BFC1C4;}
	.st2{fill:#929AA5;}
</style>
<g>
	<path class="st0" d="M31.3,49.6c-1.6,0-2.9-1.3-2.9-2.9V13.3c0-1.6,1.3-2.9,2.9-2.9h17.8c1.6,0,2.9,1.3,2.9,2.9v33.4
		c0,1.6-1.3,2.9-2.9,2.9H31.3z"/>
	<path class="st1" d="M49.1,10.8c1.4,0,2.5,1.1,2.5,2.5v33.4c0,1.4-1.1,2.5-2.5,2.5H31.3c-1.4,0-2.5-1.1-2.5-2.5V13.3
		c0-1.4,1.1-2.5,2.5-2.5H49.1 M49.1,10H31.3c-1.8,0-3.3,1.5-3.3,3.3v33.4c0,1.8,1.5,3.3,3.3,3.3h17.8c1.8,0,3.3-1.5,3.3-3.3V13.3
		C52.4,11.5,51,10,49.1,10L49.1,10z"/>
</g>
<polygon class="st2" points="40.2,35.6 38.6,34 34.7,34 40.2,39.6 45.8,34 41.8,34 "/>
<polygon class="st2" points="40.2,24.4 38.6,26 34.7,26 40.2,20.4 45.8,26 41.8,26 "/>
<polygon class="st2" points="75.8,27 64.7,27 70.2,21.4 "/>
</svg>
