<?xml version="1.0" encoding="utf-8"?>
<!-- Generator: Adobe Illustrator 21.0.0, SVG Export Plug-In . SVG Version: 6.00 Build 0)  -->
<svg version="1.1" id="Layer_1" xmlns="http://www.w3.org/2000/svg" xmlns:xlink="http://www.w3.org/1999/xlink" x="0px" y="0px"
	 viewBox="0 0 450 90" style="enable-background:new 0 0 450 90;" xml:space="preserve">
<style type="text/css">
	.st0{fill:#3B3B3B;}
</style>
<g>
	<path class="st0" d="M188.1,64.2h-24.6V25.3h7.6v32.1h17V64.2z"/>
	<path class="st0" d="M185.6,44.7c0-6.5,1.4-11.5,4.3-14.9s6.9-5.2,12.2-5.2c2.8,0,5.2,0.5,7.3,1.4c2.1,1,3.8,2.3,5.2,4.1
		c1.4,1.8,2.4,3.9,3.1,6.4c0.7,2.5,1,5.2,1,8.3c0,6.5-1.4,11.5-4.3,14.9c-2.9,3.5-6.9,5.2-12.2,5.2c-2.8,0-5.3-0.5-7.3-1.4
		c-2.1-1-3.8-2.3-5.1-4.1c-1.4-1.8-2.4-3.9-3-6.4S185.6,47.8,185.6,44.7z M193.6,44.7c0,2,0.2,3.8,0.5,5.4c0.3,1.6,0.8,3.1,1.5,4.2
		c0.7,1.2,1.6,2.1,2.6,2.8c1.1,0.7,2.3,1,3.8,1c2.7,0,4.8-1.1,6.3-3.2c1.5-2.1,2.2-5.5,2.2-10.3c0-1.9-0.2-3.6-0.5-5.3
		c-0.3-1.6-0.8-3.1-1.5-4.3s-1.5-2.2-2.6-2.9c-1.1-0.7-2.4-1-3.9-1c-2.7,0-4.8,1.1-6.3,3.2C194.4,36.7,193.6,40.1,193.6,44.7z"/>
	<path class="st0" d="M237.7,43.9h14.5v17.3c-1.6,1.3-3.4,2.2-5.6,2.8c-2.2,0.6-4.3,0.9-6.4,0.9c-2.5,0-4.8-0.4-6.9-1.2
		c-2.1-0.8-4-2-5.5-3.6c-1.6-1.6-2.8-3.7-3.7-6.3c-0.9-2.6-1.3-5.6-1.3-9.1c0-3.7,0.5-6.8,1.6-9.3c1.1-2.6,2.4-4.7,4.2-6.3
		c1.7-1.6,3.7-2.8,5.8-3.5s4.3-1.1,6.5-1.1s4.2,0.2,5.9,0.5c1.7,0.3,3,0.7,4,1.1l-1.6,6.4c-0.9-0.4-2-0.7-3.1-0.9
		c-1.1-0.2-2.6-0.3-4.4-0.3c-1.6,0-3.1,0.2-4.4,0.7c-1.3,0.5-2.5,1.3-3.5,2.4c-1,1.1-1.7,2.5-2.3,4.2c-0.5,1.7-0.8,3.8-0.8,6.2
		c0,2.3,0.3,4.3,0.8,6c0.5,1.7,1.2,3.1,2.2,4.2c0.9,1.1,2,1.9,3.2,2.4c1.2,0.5,2.6,0.8,4,0.8c1,0,1.9-0.1,2.8-0.4
		c0.9-0.2,1.7-0.6,2.3-1.1v-7.3l-8.4-0.9V43.9z"/>
	<path class="st0" d="M256.6,44.7c0-6.5,1.4-11.5,4.3-14.9c2.8-3.5,6.9-5.2,12.2-5.2c2.8,0,5.2,0.5,7.3,1.4c2.1,1,3.8,2.3,5.2,4.1
		c1.4,1.8,2.4,3.9,3.1,6.4c0.7,2.5,1,5.2,1,8.3c0,6.5-1.4,11.5-4.3,14.9s-6.9,5.2-12.2,5.2c-2.8,0-5.2-0.5-7.3-1.4
		c-2.1-1-3.8-2.3-5.1-4.1c-1.3-1.8-2.4-3.9-3-6.4S256.6,47.8,256.6,44.7z M264.6,44.7c0,2,0.2,3.8,0.5,5.4c0.3,1.6,0.8,3.1,1.5,4.2
		c0.7,1.2,1.6,2.1,2.6,2.8c1.1,0.7,2.3,1,3.8,1c2.7,0,4.8-1.1,6.3-3.2c1.5-2.1,2.2-5.5,2.2-10.3c0-1.9-0.2-3.6-0.5-5.3
		c-0.3-1.6-0.8-3.1-1.5-4.3S278,33,277,32.3c-1.1-0.7-2.4-1-3.9-1c-2.7,0-4.8,1.1-6.3,3.2C265.3,36.7,264.6,40.1,264.6,44.7z"/>
</g>
</svg>
