<?xml version="1.0" encoding="utf-8"?>
<!-- Generator: Adobe Illustrator 21.0.0, SVG Export Plug-In . SVG Version: 6.00 Build 0)  -->
<svg version="1.1" id="Layer_1" xmlns="http://www.w3.org/2000/svg" xmlns:xlink="http://www.w3.org/1999/xlink" x="0px" y="0px"
	 viewBox="0 0 100 100" style="enable-background:new 0 0 100 100;" xml:space="preserve">
<style type="text/css">
	.st0{fill:#358FFC;}
	.st1{fill:#358FFC;stroke:#FFFFFF;stroke-width:2;stroke-miterlimit:10;}
	.st2{fill:#358FFC;stroke:#FFFFFF;stroke-miterlimit:10;}
</style>
<g>
	<g>
		<path class="st0" d="M-20,38.2v-1.6c0-2.2-1.8-4.1-4-4.2c-0.9-2.5-3.1-4.3-5.7-4.9l-2.6-0.6c-4.1-0.9-6.9-4.5-6.9-8.6v-3.1
			c0.5-0.4,0.9-1.1,0.9-1.8c0-1.4-1.2-2.6-2.6-2.6h-6.2c-1.4,0-2.6,1.2-2.6,2.6c0,0.7,0.3,1.4,0.9,1.8v3.1c0,4.2-2.8,7.7-6.9,8.6
			l-2.6,0.6c-2.6,0.6-4.7,2.4-5.7,4.9c-2.2,0.1-4,1.9-4,4.2v1.6c0,1.2,0.7,2.2,1.8,2.6V46c-1.1,0.5-1.8,1.6-1.8,2.8
			c0,1.2,0.7,2.3,1.8,2.8v20.9c-0.6,0.5-1.1,1.4-1.1,2.5c0,1.1,0.4,2,1.1,2.5v2.2c-1.1,0.5-1.8,1.6-1.8,2.8v1.3c0,3,2.4,5.4,5.4,5.4
			h3.7v0h29.8v0h3.7c3,0,5.4-2.4,5.4-5.4v-1.3c0-1.2-0.7-2.3-1.8-2.8v-2.2c0.6-0.5,1.1-1.4,1.1-2.5c0-1.1-0.4-2-1.1-2.5V51.7
			c1.1-0.5,1.8-1.6,1.8-2.8c0-1.2-0.7-2.3-1.8-2.8v-5.2C-20.7,40.4-20,39.4-20,38.2z M-47.4,15.7h6.8v2.7c0,0.4,0,0.8,0.1,1.1h-6.9
			c0-0.4,0.1-0.7,0.1-1.1L-47.4,15.7L-47.4,15.7z M-47.1,12.2h6.2c0.6,0,1.2,0.5,1.2,1.2c0,0.4-0.4,0.8-0.8,0.8h-6.9
			c-0.4,0-0.8-0.4-0.8-0.8C-48.3,12.8-47.7,12.2-47.1,12.2z M-47.7,20.9h7.4c0.3,1,0.7,2,1.2,2.8h-9.8C-48.4,22.9-48,21.9-47.7,20.9
			z M-21.5,83.8c0,2.2-1.8,3.9-3.9,3.9h-37.2c-2.2,0-3.9-1.8-3.9-3.9v-1.3c0-0.9,0.8-1.7,1.7-1.7h4c0.4,0,0.7-0.3,0.7-0.7
			c0-0.4-0.3-0.7-0.7-0.7h-4v-1.5h7.3c0.4,0,0.7-0.3,0.7-0.7c0-0.4-0.3-0.7-0.7-0.7h-7.7c-0.2,0-0.6-0.5-0.6-1.4s0.4-1.4,0.6-1.4
			h22.5c0.4,0,0.7-0.3,0.7-0.7s-0.3-0.7-0.7-0.7h-22.1V52h41.5v20.2h-14.5c-0.4,0-0.7,0.3-0.7,0.7c0,0.4,0.3,0.7,0.7,0.7h14.9
			c0.2,0,0.6,0.5,0.6,1.4s-0.4,1.4-0.6,1.4h-29.4c-0.4,0-0.7,0.3-0.7,0.7s0.3,0.7,0.7,0.7h29v1.5h-4.6c-0.4,0-0.7,0.3-0.7,0.7
			c0,0.4,0.3,0.7,0.7,0.7h4.7c0.9,0,1.7,0.8,1.7,1.7L-21.5,83.8L-21.5,83.8z M-23.2,50.5h-41.7c-0.9,0-1.7-0.8-1.7-1.7
			c0-0.9,0.8-1.7,1.7-1.7h24.2c0.4,0,0.7-0.3,0.7-0.7c0-0.4-0.3-0.7-0.7-0.7h-24.1V41h12.9c0.4,0,0.7-0.3,0.7-0.7s-0.3-0.7-0.7-0.7
			h-13.3c-0.7,0-1.4-0.6-1.4-1.4v-1.6c0-1.5,1.2-2.7,2.7-2.7h4.5c0.4,0,0.7-0.3,0.7-0.7s-0.3-0.7-0.7-0.7h-3.1
			c0.9-1.7,2.5-3,4.4-3.5l2.6-0.6c2.2-0.5,4-1.6,5.4-3.1h12c1.4,1.5,3.2,2.7,5.4,3.1L-30,29c1.9,0.4,3.5,1.7,4.4,3.5h-3
			c-0.4,0-0.7,0.3-0.7,0.7s0.3,0.7,0.7,0.7h4.4c1.5,0,2.7,1.2,2.7,2.7v1.6c0,0.7-0.6,1.4-1.4,1.4h-23.7c-0.4,0-0.7,0.3-0.7,0.7
			s0.3,0.7,0.7,0.7h23.3v4.6h-12.3c-0.4,0-0.7,0.3-0.7,0.7c0,0.4,0.3,0.7,0.7,0.7h12.4c0.9,0,1.7,0.8,1.7,1.7
			C-21.5,49.8-22.2,50.5-23.2,50.5z"/>
		<path class="st0" d="M-25.9,71.4c0.4,0,0.7-0.3,0.7-0.7V53.5c0-0.4-0.3-0.7-0.7-0.7c-0.4,0-0.7,0.3-0.7,0.7v17.2
			C-26.6,71.1-26.3,71.4-25.9,71.4z"/>
		<path class="st0" d="M-25.9,44.9c0.4,0,0.7-0.3,0.7-0.7v-1.5c0-0.4-0.3-0.7-0.7-0.7c-0.4,0-0.7,0.3-0.7,0.7v1.5
			C-26.6,44.5-26.3,44.9-25.9,44.9z"/>
		<path class="st0" d="M-23.7,38.7c0.4,0,0.7-0.3,0.7-0.7v-2.1c0-0.4-0.3-0.7-0.7-0.7s-0.7,0.3-0.7,0.7V38
			C-24.5,38.4-24.2,38.7-23.7,38.7z"/>
	</g>
</g>
<g>
	<g>
		<path class="st1" d="M177.3,58.4c-1.4-1.5-3.2-2.3-5-2.3c-1.8,0-3.6,0.8-5.1,2.3l-4.7,4.7c-0.4-0.2-0.8-0.4-1.1-0.6
			c-0.5-0.3-1-0.5-1.5-0.8c-4.4-2.8-8.3-6.4-12.2-11.1c-1.8-2.3-3.1-4.3-4-6.3c1.2-1.1,2.3-2.3,3.4-3.4c0.4-0.4,0.8-0.8,1.2-1.3
			c3.1-3.1,3.1-7.1,0-10.2l-4-4c-0.5-0.5-0.9-0.9-1.4-1.4c-0.9-0.9-1.8-1.9-2.8-2.7c-1.4-1.4-3.1-2.2-4.9-2.2c-1.8,0-3.5,0.8-5,2.2
			c0,0,0,0,0,0l-5,5.1c-1.9,1.9-3,4.2-3.2,6.9c-0.4,4.3,0.9,8.3,1.9,11c2.4,6.5,6,12.4,11.3,18.9c6.5,7.7,14.3,13.8,23.2,18.1
			c3.4,1.6,7.9,3.5,13,3.8c0.3,0,0.6,0,0.9,0c3.4,0,6.3-1.2,8.5-3.7c0,0,0,0,0.1-0.1c0.8-0.9,1.7-1.8,2.6-2.7
			c0.6-0.6,1.3-1.2,1.9-1.9c1.5-1.5,2.2-3.3,2.2-5.1c0-1.8-0.8-3.6-2.3-5.1L177.3,58.4z M182.6,73.9
			C182.6,73.9,182.6,73.9,182.6,73.9c-0.6,0.6-1.2,1.2-1.8,1.8c-1,0.9-1.9,1.9-2.9,3c-1.5,1.6-3.3,2.3-5.6,2.3c-0.2,0-0.5,0-0.7,0
			c-4.4-0.3-8.5-2-11.5-3.5c-8.4-4-15.7-9.8-21.8-17.1c-5-6.1-8.4-11.7-10.6-17.7c-1.4-3.7-1.9-6.5-1.7-9.2c0.1-1.7,0.8-3.2,2-4.4
			l5-5c0.7-0.7,1.5-1,2.2-1c0.9,0,1.7,0.6,2.2,1c0,0,0,0,0,0c0.9,0.8,1.8,1.7,2.7,2.6c0.5,0.5,0.9,0.9,1.4,1.4l4,4
			c1.6,1.6,1.6,3,0,4.6c-0.4,0.4-0.8,0.9-1.3,1.3c-1.2,1.3-2.4,2.5-3.7,3.6c0,0-0.1,0-0.1,0.1c-1.3,1.3-1,2.5-0.8,3.4
			c0,0,0,0.1,0,0.1c1,2.5,2.5,4.9,4.8,7.8l0,0c4.1,5,8.4,8.9,13.1,11.9c0.6,0.4,1.2,0.7,1.8,1c0.5,0.3,1,0.5,1.5,0.8
			c0.1,0,0.1,0.1,0.2,0.1c0.5,0.3,1,0.4,1.5,0.4c1.2,0,2-0.8,2.2-1l5.1-5.1c0.5-0.5,1.3-1.1,2.2-1.1c0.9,0,1.7,0.6,2.1,1.1
			c0,0,0,0,0,0l8.1,8.1C184.1,70.8,184.1,72.4,182.6,73.9z"/>
		<path class="st1" d="M159.8,31.7c3.9,0.7,7.4,2.5,10.2,5.3c2.8,2.8,4.6,6.3,5.3,10.2c0.2,1,1,1.7,2,1.7c0.1,0,0.2,0,0.3,0
			c1.1-0.2,1.8-1.2,1.6-2.3c-0.8-4.7-3-9-6.4-12.3c-3.4-3.4-7.7-5.6-12.3-6.4c-1.1-0.2-2.1,0.5-2.3,1.6S158.7,31.5,159.8,31.7z"/>
		<path class="st1" d="M191.9,45.9c-1.3-7.7-4.9-14.7-10.5-20.3s-12.6-9.2-20.3-10.5c-1.1-0.2-2.1,0.5-2.3,1.6
			c-0.2,1.1,0.5,2.1,1.6,2.3c6.9,1.2,13.2,4.4,18.2,9.4c5,5,8.2,11.3,9.4,18.2c0.2,1,1,1.7,2,1.7c0.1,0,0.2,0,0.3,0
			C191.4,48,192.1,47,191.9,45.9z"/>
	</g>
</g>
<path class="st2" d="M68.3,70.1H32.5c-0.9,0-1.6-0.7-1.6-1.6s0.7-1.6,1.6-1.6h35.7c0.9,0,1.6,0.7,1.6,1.6S69.1,70.1,68.3,70.1z"/>
<path class="st2" d="M91.5,70.1h-6.3c-0.9,0-1.6-0.7-1.6-1.6s0.7-1.6,1.6-1.6h6.3c2.4,0,4.4-2,4.4-4.4v-6.1c0-2.2-0.9-4.4-2.5-6
	l-7-7c-0.1-0.1-0.2-0.3-0.3-0.5l-5.8-12.5c-1.2-2.5-3.7-4.1-6.5-4.1H9.1c-2.7,0-5,2.2-5,5v31.2c0,2.4,2,4.4,4.4,4.4h7
	c0.9,0,1.6,0.7,1.6,1.6s-0.7,1.6-1.6,1.6h-7c-4.1,0-7.5-3.4-7.5-7.5V31.5c0-4.5,3.6-8.1,8.1-8.1h64.6c4,0,7.7,2.3,9.3,6l5.7,12.2
	l6.8,6.8c2.2,2.2,3.4,5.2,3.4,8.2v6.1C99,66.8,95.6,70.1,91.5,70.1z"/>
<path class="st2" d="M68.5,48.6H23.3c-0.9,0-1.6-0.7-1.6-1.6c0-0.9,0.7-1.6,1.6-1.6h45.2c0.9,0,1.6,0.7,1.6,1.6
	C70,47.9,69.3,48.6,68.5,48.6z"/>
<g>
	<path class="st2" d="M68.3,70.1H32.5c-0.9,0-1.6-0.7-1.6-1.6s0.7-1.6,1.6-1.6h35.7c0.9,0,1.6,0.7,1.6,1.6S69.1,70.1,68.3,70.1z"/>
	<path class="st2" d="M24,78.6c-5.6,0-10.1-4.5-10.1-10.1C14,63,18.5,58.5,24,58.5c5.6,0,10.1,4.5,10.1,10.1
		C34.1,74.1,29.6,78.6,24,78.6z M24,61.6c-3.8,0-6.9,3.1-6.9,6.9s3.1,6.9,6.9,6.9s6.9-3.1,6.9-6.9S27.9,61.6,24,61.6z"/>
	<path class="st2" d="M76.8,78.6c-5.6,0-10.1-4.5-10.1-10.1c0-5.6,4.5-10.1,10.1-10.1c5.6,0,10.1,4.5,10.1,10.1
		C86.8,74.1,82.3,78.6,76.8,78.6z M76.8,61.6c-3.8,0-6.9,3.1-6.9,6.9s3.1,6.9,6.9,6.9s6.9-3.1,6.9-6.9S80.6,61.6,76.8,61.6z"/>
</g>
</svg>
