<?xml version="1.0" encoding="utf-8"?>
<!-- Generator: Adobe Illustrator 21.0.0, SVG Export Plug-In . SVG Version: 6.00 Build 0)  -->
<svg version="1.1" id="Layer_1" xmlns="http://www.w3.org/2000/svg" xmlns:xlink="http://www.w3.org/1999/xlink" x="0px" y="0px"
	 viewBox="0 0 200 100" style="enable-background:new 0 0 200 100;" xml:space="preserve">
<style type="text/css">
	.st0{fill:#FFFFFF;}
	.st1{fill:#358FFC;}
	.st2{fill:#FAFBFC;}
</style>
<g>
	<rect class="st0" width="201" height="1"/>
	<rect y="99" class="st0" width="201" height="1"/>
</g>
<g>
	<path class="st1" d="M170.8,16.6l-70.3,5.1c-1.8,0.1-3.3,1.3-4,2.9l-6.5,15.7c-0.6,1.4-0.5,3.1,0.3,4.4l8.4,14.1
		c1.1,1.8,3.1,2.9,5.2,2.7l69.2-5.1c2.8-0.2,4.9-2.7,4.7-5.5l-2.2-30.2C175.6,18.4,173.4,16.4,170.8,16.6z M98.2,44
		c-1.1,0.1-2.1-0.7-2.1-1.8C96,41,96.8,40.1,97.9,40c1.1-0.1,2.1,0.7,2.1,1.8C100.2,42.9,99.3,43.9,98.2,44z"/>
	<g>
		<path class="st0" d="M125.7,44.6l0.2,2.4c0.1,1.8,1,2.5,2.3,2.4c1.3-0.1,2.1-0.8,1.9-2.7l-0.4-5.7c-0.1-1.9-1-2.5-2.3-2.4
			c-1.3,0.1-2.1,0.9-1.9,2.7l0.1,0.8l-3.8,0.3l-0.4-15.1l10.7-0.8l0.3,3.7l-7.1,0.5l0.1,6.2c0.7-1.3,1.8-2,3.4-2.1
			c3-0.2,4.7,1.8,4.9,5.6l0.4,5.8c0.3,4.1-1.6,6.7-5.6,7c-4,0.3-6.2-1.9-6.5-6.1l-0.2-2.1L125.7,44.6z"/>
		<path class="st0" d="M135.6,32.5c-0.3-4.1,1.7-6.7,5.7-7c4-0.3,6.4,1.9,6.7,6.1l1,13.5c0.3,4.1-1.7,6.7-5.7,7
			c-4,0.3-6.4-1.9-6.7-6.1L135.6,32.5z M140.6,45.9c0.1,1.8,1,2.5,2.3,2.4c1.3-0.1,2.1-0.9,1.9-2.7l-1-14c-0.1-1.9-1-2.5-2.3-2.4
			c-1.3,0.1-2.1,0.9-1.9,2.7L140.6,45.9z"/>
	</g>
	<g>
		<path class="st0" d="M153.2,42l-0.6-8.1l3.3-0.2l0.1,1.2L154,35l0.5,6.9L153.2,42z"/>
		<path class="st0" d="M160.7,35.4l0.1,1c0.1,1.3-0.5,2-1.7,2.1l-0.6,0l0.2,3l-1.3,0.1l-0.6-8.1l1.9-0.1
			C160,33.4,160.6,34.1,160.7,35.4z M158.2,34.7l0.2,2.7l0.6,0c0.4,0,0.6-0.2,0.6-0.8l-0.1-1.2c0-0.6-0.3-0.7-0.7-0.7L158.2,34.7z"
			/>
		<path class="st0" d="M163,41.3l-1.3,0.1l-0.6-8.1l1.3-0.1l0.3,3.5l1.4-0.1l-0.3-3.5l1.3-0.1l0.6,8.1l-1.3,0.1l-0.3-3.5l-1.4,0.1
			L163,41.3z"/>
	</g>
</g>
<g>
	<g>
		<g>
			<path class="st2" d="M77.6,39.4v-1.3c0-1.8-1.5-3.3-3.3-3.4c-0.7-2-2.5-3.5-4.7-4l-2.1-0.5c-3.3-0.7-5.6-3.7-5.6-7v-2.5
				c0.4-0.3,0.7-0.9,0.7-1.5c0-1.1-1-2.1-2.1-2.1h-5.1c-1.1,0-2.1,1-2.1,2.1c0,0.6,0.2,1.1,0.7,1.5v2.5c0,3.4-2.3,6.3-5.6,7
				l-2.1,0.5c-2.1,0.5-3.8,2-4.7,4c-1.8,0.1-3.3,1.6-3.3,3.4v1.3c0,1,0.6,1.8,1.5,2.1v4.2C39,46.1,38.4,47,38.4,48s0.6,1.9,1.5,2.3
				v17.1c-0.5,0.4-0.9,1.1-0.9,2c0,0.9,0.3,1.6,0.9,2v1.8c-0.9,0.4-1.5,1.3-1.5,2.3v1.1c0,2.4,2,4.4,4.4,4.4h3l0,0h24.3l0,0h3
				c2.4,0,4.4-2,4.4-4.4v-1.1c0-1-0.6-1.9-1.5-2.3v-1.8c0.5-0.4,0.9-1.1,0.9-2c0-0.9-0.3-1.6-0.9-2v-17c0.9-0.4,1.5-1.3,1.5-2.3
				s-0.6-1.9-1.5-2.3v-4.2C77,41.2,77.6,40.3,77.6,39.4z M55.2,21h5.6v2.2c0,0.3,0,0.7,0.1,0.9h-5.6c0-0.3,0.1-0.6,0.1-0.9L55.2,21
				L55.2,21z M55.5,18.1h5.1c0.5,0,1,0.4,1,1c0,0.3-0.3,0.7-0.7,0.7h-5.6c-0.3,0-0.7-0.3-0.7-0.7C54.5,18.6,55,18.1,55.5,18.1z
				 M55,25.2h6c0.2,0.8,0.6,1.6,1,2.3h-8C54.4,26.9,54.7,26.1,55,25.2z M76.4,76.6c0,1.8-1.5,3.2-3.2,3.2H42.8
				c-1.8,0-3.2-1.5-3.2-3.2v-1.1c0-0.7,0.7-1.4,1.4-1.4h3.3c0.3,0,0.6-0.2,0.6-0.6c0-0.3-0.2-0.6-0.6-0.6H41v-1.2h6
				c0.3,0,0.6-0.2,0.6-0.6s-0.2-0.6-0.6-0.6h-6.3c-0.2,0-0.5-0.4-0.5-1.1s0.3-1.1,0.5-1.1h18.4c0.3,0,0.6-0.2,0.6-0.6
				s-0.2-0.6-0.6-0.6H41V50.6h33.9v16.5H63.1c-0.3,0-0.6,0.2-0.6,0.6c0,0.3,0.2,0.6,0.6,0.6h12.2c0.2,0,0.5,0.4,0.5,1.1
				s-0.3,1.1-0.5,1.1h-24c-0.3,0-0.6,0.2-0.6,0.6c0,0.3,0.2,0.6,0.6,0.6H75v1.2h-3.8c-0.3,0-0.6,0.2-0.6,0.6s0.2,0.6,0.6,0.6h3.8
				c0.7,0,1.4,0.7,1.4,1.4L76.4,76.6L76.4,76.6z M75,49.4H41c-0.7,0-1.4-0.7-1.4-1.4s0.7-1.4,1.4-1.4h19.8c0.3,0,0.6-0.2,0.6-0.6
				c0-0.3-0.2-0.6-0.6-0.6H41v-3.8h10.5c0.3,0,0.6-0.2,0.6-0.6c0-0.3-0.2-0.6-0.6-0.6H40.7c-0.6,0-1.1-0.5-1.1-1.1v-1.3
				c0-1.2,1-2.2,2.2-2.2h3.7c0.3,0,0.6-0.2,0.6-0.6c0-0.3-0.2-0.6-0.6-0.6h-2.5c0.7-1.4,2-2.4,3.6-2.9l2.1-0.5
				c1.8-0.4,3.3-1.3,4.4-2.5h9.8c1.1,1.2,2.6,2.2,4.4,2.5l2.2,0.5c1.6,0.3,2.9,1.4,3.6,2.9h-2.4c-0.3,0-0.6,0.2-0.6,0.6
				s0.2,0.6,0.6,0.6h3.6c1.2,0,2.2,1,2.2,2.2v1.3c0,0.6-0.5,1.1-1.1,1.1H56c-0.3,0-0.6,0.2-0.6,0.6c0,0.3,0.2,0.6,0.6,0.6h19v3.8
				h-10c-0.3,0-0.6,0.2-0.6,0.6s0.2,0.6,0.6,0.6h10.1c0.7,0,1.4,0.7,1.4,1.4C76.4,48.8,75.8,49.4,75,49.4z"/>
			<path class="st2" d="M72.8,66.5c0.3,0,0.6-0.2,0.6-0.6v-14c0-0.3-0.2-0.6-0.6-0.6s-0.6,0.2-0.6,0.6v14
				C72.2,66.2,72.4,66.5,72.8,66.5z"/>
			<path class="st2" d="M72.8,44.8c0.3,0,0.6-0.2,0.6-0.6V43c0-0.3-0.2-0.6-0.6-0.6s-0.6,0.2-0.6,0.6v1.2
				C72.2,44.5,72.4,44.8,72.8,44.8z"/>
			<path class="st2" d="M74.6,39.8c0.3,0,0.6-0.2,0.6-0.6v-1.7c0-0.3-0.2-0.6-0.6-0.6c-0.3,0-0.6,0.2-0.6,0.6v1.7
				C73.9,39.5,74.2,39.8,74.6,39.8z"/>
		</g>
	</g>
	<path class="st1" d="M61,25.2h-6c-0.2,0.8-0.6,1.6-1,2.3h8C61.6,26.9,61.3,26.1,61,25.2z"/>
	<path class="st1" d="M60.9,24.1c-0.1-0.2-0.1-0.6-0.1-0.9V21h-5.6l0.1,2.2c0,0.3-0.1,0.6-0.1,0.9H60.9z"/>
	<path class="st1" d="M75.1,74.1h-3.8c-0.3,0-0.6-0.2-0.6-0.6c0-0.3,0.2-0.6,0.6-0.6H75v-1.2H51.3c-0.3,0-0.6-0.2-0.6-0.6
		c0-0.3,0.2-0.6,0.6-0.6h24c0.2,0,0.5-0.4,0.5-1.1c0-0.7-0.3-1.1-0.5-1.1H63.1c-0.3,0-0.6-0.2-0.6-0.6c0-0.3,0.2-0.6,0.6-0.6h11.8
		V50.6H41v16.6h18c0.3,0,0.6,0.2,0.6,0.6c0,0.3-0.2,0.6-0.6,0.6H40.7c-0.2,0-0.5,0.4-0.5,1.1c0,0.7,0.3,1.1,0.5,1.1H47
		c0.3,0,0.6,0.2,0.6,0.6c0,0.3-0.2,0.6-0.6,0.6h-6V73h3.3c0.3,0,0.6,0.2,0.6,0.6c0,0.3-0.2,0.6-0.6,0.6H41c-0.7,0-1.4,0.7-1.4,1.4
		v1.1c0,1.7,1.4,3.2,3.2,3.2h30.4c1.7,0,3.2-1.4,3.2-3.2l0.1-1.1C76.4,74.7,75.8,74.1,75.1,74.1z M72.2,51.9c0-0.3,0.2-0.6,0.6-0.6
		c0.3,0,0.6,0.2,0.6,0.6v14c0,0.3-0.2,0.6-0.6,0.6c-0.3,0-0.6-0.2-0.6-0.6V51.9z"/>
	<path class="st1" d="M55.2,19.8h5.6c0.3,0,0.7-0.3,0.7-0.7c0-0.6-0.5-1-1-1h-5.1c-0.5,0-1,0.5-0.9,1C54.6,19.4,54.9,19.8,55.2,19.8
		z"/>
	<path class="st1" d="M74.2,35.9h-3.6c-0.3,0-0.6-0.2-0.6-0.6c0-0.3,0.2-0.6,0.6-0.6H73c-0.7-1.5-2-2.5-3.6-2.9l-2.2-0.5
		c-1.8-0.3-3.3-1.3-4.4-2.5H53c-1.1,1.2-2.6,2.1-4.4,2.5l-2.1,0.5c-1.6,0.4-2.9,1.5-3.6,2.9h2.5c0.3,0,0.6,0.2,0.6,0.6
		c0,0.3-0.2,0.6-0.6,0.6h-3.7c-1.2,0-2.2,1-2.2,2.2v1.3c0,0.7,0.6,1.1,1.1,1.1h10.9c0.3,0,0.6,0.2,0.6,0.6c0,0.3-0.2,0.6-0.6,0.6H41
		v3.8h19.8c0.3,0,0.6,0.2,0.6,0.6c0,0.3-0.2,0.6-0.6,0.6H41c-0.7,0-1.4,0.7-1.4,1.4c0,0.7,0.7,1.4,1.4,1.4h34c0.8,0,1.4-0.6,1.5-1.5
		c0-0.7-0.7-1.4-1.4-1.4H64.9c-0.3,0-0.6-0.2-0.6-0.6c0-0.3,0.2-0.6,0.6-0.6h10v-3.8H56c-0.3,0-0.6-0.2-0.6-0.6
		c0-0.3,0.2-0.6,0.6-0.6h19.3c0.7,0,1.1-0.6,1.1-1.1v-1.3C76.4,36.8,75.4,35.9,74.2,35.9z M72.2,43c0-0.3,0.2-0.6,0.6-0.6
		c0.3,0,0.6,0.2,0.6,0.6v1.2c0,0.3-0.2,0.6-0.6,0.6c-0.3,0-0.6-0.3-0.6-0.6V43z M75.1,39.2c0,0.3-0.2,0.6-0.6,0.6
		c-0.4,0-0.7-0.2-0.6-0.6v-1.7c0-0.3,0.2-0.6,0.6-0.6c0.3,0,0.6,0.2,0.6,0.6V39.2z"/>
</g>
</svg>
