<?xml version="1.0" encoding="utf-8"?>
<!-- Generator: Adobe Illustrator 21.0.0, SVG Export Plug-In . SVG Version: 6.00 Build 0)  -->
<svg version="1.1" id="Layer_1" xmlns="http://www.w3.org/2000/svg" xmlns:xlink="http://www.w3.org/1999/xlink" x="0px" y="0px"
	 viewBox="0 0 100 100" style="enable-background:new 0 0 100 100;" xml:space="preserve">
<style type="text/css">
	.st0{fill:#358FFC;}
	.st1{fill:#358FFC;stroke:#FFFFFF;stroke-miterlimit:10;}
</style>
<g>
	<g>
		<path class="st0" d="M-20,38.2v-1.6c0-2.2-1.8-4.1-4-4.2c-0.9-2.5-3.1-4.3-5.7-4.9l-2.6-0.6c-4.1-0.9-6.9-4.5-6.9-8.6v-3.1
			c0.5-0.4,0.9-1.1,0.9-1.8c0-1.4-1.2-2.6-2.6-2.6h-6.2c-1.4,0-2.6,1.2-2.6,2.6c0,0.7,0.3,1.4,0.9,1.8v3.1c0,4.2-2.8,7.7-6.9,8.6
			l-2.6,0.6c-2.6,0.6-4.7,2.4-5.7,4.9c-2.2,0.1-4,1.9-4,4.2v1.6c0,1.2,0.7,2.2,1.8,2.6V46c-1.1,0.5-1.8,1.6-1.8,2.8
			c0,1.2,0.7,2.3,1.8,2.8v20.9c-0.6,0.5-1.1,1.4-1.1,2.5c0,1.1,0.4,2,1.1,2.5v2.2c-1.1,0.5-1.8,1.6-1.8,2.8v1.3c0,3,2.4,5.4,5.4,5.4
			h3.7v0h29.8v0h3.7c3,0,5.4-2.4,5.4-5.4v-1.3c0-1.2-0.7-2.3-1.8-2.8v-2.2c0.6-0.5,1.1-1.4,1.1-2.5c0-1.1-0.4-2-1.1-2.5V51.7
			c1.1-0.5,1.8-1.6,1.8-2.8c0-1.2-0.7-2.3-1.8-2.8v-5.2C-20.7,40.4-20,39.4-20,38.2z M-47.4,15.7h6.8v2.7c0,0.4,0,0.8,0.1,1.1h-6.9
			c0-0.4,0.1-0.7,0.1-1.1L-47.4,15.7L-47.4,15.7z M-47.1,12.2h6.2c0.6,0,1.2,0.5,1.2,1.2c0,0.4-0.4,0.8-0.8,0.8h-6.9
			c-0.4,0-0.8-0.4-0.8-0.8C-48.3,12.8-47.7,12.2-47.1,12.2z M-47.7,20.9h7.4c0.3,1,0.7,2,1.2,2.8h-9.8C-48.4,22.9-48,21.9-47.7,20.9
			z M-21.5,83.8c0,2.2-1.8,3.9-3.9,3.9h-37.2c-2.2,0-3.9-1.8-3.9-3.9v-1.3c0-0.9,0.8-1.7,1.7-1.7h4c0.4,0,0.7-0.3,0.7-0.7
			c0-0.4-0.3-0.7-0.7-0.7h-4v-1.5h7.3c0.4,0,0.7-0.3,0.7-0.7c0-0.4-0.3-0.7-0.7-0.7h-7.7c-0.2,0-0.6-0.5-0.6-1.4s0.4-1.4,0.6-1.4
			h22.5c0.4,0,0.7-0.3,0.7-0.7s-0.3-0.7-0.7-0.7h-22.1V52h41.5v20.2h-14.5c-0.4,0-0.7,0.3-0.7,0.7c0,0.4,0.3,0.7,0.7,0.7h14.9
			c0.2,0,0.6,0.5,0.6,1.4s-0.4,1.4-0.6,1.4h-29.4c-0.4,0-0.7,0.3-0.7,0.7s0.3,0.7,0.7,0.7h29v1.5h-4.6c-0.4,0-0.7,0.3-0.7,0.7
			c0,0.4,0.3,0.7,0.7,0.7h4.7c0.9,0,1.7,0.8,1.7,1.7L-21.5,83.8L-21.5,83.8z M-23.2,50.5h-41.7c-0.9,0-1.7-0.8-1.7-1.7
			c0-0.9,0.8-1.7,1.7-1.7h24.2c0.4,0,0.7-0.3,0.7-0.7c0-0.4-0.3-0.7-0.7-0.7h-24.1V41h12.9c0.4,0,0.7-0.3,0.7-0.7s-0.3-0.7-0.7-0.7
			h-13.3c-0.7,0-1.4-0.6-1.4-1.4v-1.6c0-1.5,1.2-2.7,2.7-2.7h4.5c0.4,0,0.7-0.3,0.7-0.7s-0.3-0.7-0.7-0.7h-3.1
			c0.9-1.7,2.5-3,4.4-3.5l2.6-0.6c2.2-0.5,4-1.6,5.4-3.1h12c1.4,1.5,3.2,2.7,5.4,3.1L-30,29c1.9,0.4,3.5,1.7,4.4,3.5h-3
			c-0.4,0-0.7,0.3-0.7,0.7s0.3,0.7,0.7,0.7h4.4c1.5,0,2.7,1.2,2.7,2.7v1.6c0,0.7-0.6,1.4-1.4,1.4h-23.7c-0.4,0-0.7,0.3-0.7,0.7
			s0.3,0.7,0.7,0.7h23.3v4.6h-12.3c-0.4,0-0.7,0.3-0.7,0.7c0,0.4,0.3,0.7,0.7,0.7h12.4c0.9,0,1.7,0.8,1.7,1.7
			C-21.5,49.8-22.2,50.5-23.2,50.5z"/>
		<path class="st0" d="M-25.9,71.4c0.4,0,0.7-0.3,0.7-0.7V53.5c0-0.4-0.3-0.7-0.7-0.7c-0.4,0-0.7,0.3-0.7,0.7v17.2
			C-26.6,71.1-26.3,71.4-25.9,71.4z"/>
		<path class="st0" d="M-25.9,44.9c0.4,0,0.7-0.3,0.7-0.7v-1.5c0-0.4-0.3-0.7-0.7-0.7c-0.4,0-0.7,0.3-0.7,0.7v1.5
			C-26.6,44.5-26.3,44.9-25.9,44.9z"/>
		<path class="st0" d="M-23.7,38.7c0.4,0,0.7-0.3,0.7-0.7v-2.1c0-0.4-0.3-0.7-0.7-0.7s-0.7,0.3-0.7,0.7V38
			C-24.5,38.4-24.2,38.7-23.7,38.7z"/>
	</g>
</g>
<g>
	<g>
		<path class="st1" d="M193.1,57.2c-1.1-1.1-2.3-1.7-3.7-1.7c-1.3,0-2.6,0.6-3.8,1.7l-3.5,3.5c-0.3-0.2-0.6-0.3-0.8-0.4
			c-0.4-0.2-0.8-0.4-1.1-0.6c-3.2-2.1-6.2-4.8-9-8.2c-1.4-1.7-2.3-3.2-3-4.7c0.9-0.8,1.7-1.7,2.5-2.5c0.3-0.3,0.6-0.6,0.9-0.9
			c2.3-2.3,2.3-5.3,0-7.6l-3-3c-0.3-0.3-0.7-0.7-1-1c-0.7-0.7-1.3-1.4-2.1-2c-1.1-1.1-2.3-1.6-3.7-1.6c-1.3,0-2.6,0.6-3.7,1.6
			c0,0,0,0,0,0l-3.7,3.8c-1.4,1.4-2.2,3.1-2.4,5.1c-0.3,3.2,0.7,6.2,1.4,8.1c1.8,4.8,4.4,9.2,8.4,14c4.8,5.7,10.6,10.3,17.2,13.5
			c2.5,1.2,5.9,2.6,9.7,2.9c0.2,0,0.5,0,0.7,0c2.5,0,4.7-0.9,6.3-2.7c0,0,0,0,0-0.1c0.6-0.7,1.2-1.3,1.9-2c0.5-0.4,1-0.9,1.4-1.4
			c1.1-1.1,1.7-2.4,1.7-3.8c0-1.4-0.6-2.7-1.7-3.8L193.1,57.2z M197,68.8C197,68.8,197,68.8,197,68.8c-0.4,0.5-0.9,0.9-1.3,1.3
			c-0.7,0.7-1.4,1.4-2.1,2.2c-1.1,1.2-2.4,1.7-4.1,1.7c-0.2,0-0.3,0-0.5,0c-3.3-0.2-6.3-1.5-8.6-2.6c-6.2-3-11.7-7.3-16.2-12.7
			c-3.7-4.5-6.2-8.7-7.9-13.2c-1-2.7-1.4-4.9-1.2-6.9c0.1-1.3,0.6-2.3,1.5-3.3l3.7-3.7c0.5-0.5,1.1-0.8,1.7-0.8
			c0.7,0,1.3,0.4,1.6,0.8c0,0,0,0,0,0c0.7,0.6,1.3,1.3,2,2c0.3,0.4,0.7,0.7,1,1.1l3,3c1.2,1.2,1.2,2.2,0,3.4
			c-0.3,0.3-0.6,0.6-0.9,0.9c-0.9,0.9-1.8,1.8-2.8,2.7c0,0,0,0-0.1,0.1c-0.9,0.9-0.8,1.9-0.6,2.5c0,0,0,0.1,0,0.1
			c0.8,1.9,1.9,3.7,3.5,5.8l0,0c3,3.7,6.2,6.6,9.7,8.9c0.4,0.3,0.9,0.5,1.3,0.7c0.4,0.2,0.8,0.4,1.1,0.6c0,0,0.1,0.1,0.1,0.1
			c0.4,0.2,0.7,0.3,1.1,0.3c0.9,0,1.5-0.6,1.7-0.8l3.8-3.8c0.4-0.4,1-0.8,1.7-0.8c0.7,0,1.2,0.4,1.6,0.8c0,0,0,0,0,0l6,6
			C198.1,66.5,198.1,67.6,197,68.8z"/>
		<path class="st1" d="M180.1,37.4c2.9,0.5,5.5,1.8,7.6,3.9c2.1,2.1,3.4,4.7,3.9,7.6c0.1,0.7,0.7,1.2,1.5,1.2c0.1,0,0.2,0,0.3,0
			c0.8-0.1,1.3-0.9,1.2-1.7c-0.6-3.5-2.2-6.7-4.8-9.2s-5.7-4.2-9.2-4.8c-0.8-0.1-1.6,0.4-1.7,1.2C178.8,36.5,179.3,37.2,180.1,37.4z
			"/>
		<path class="st1" d="M203.9,47.9c-1-5.7-3.7-10.9-7.8-15.1C192,28.7,186.8,26,181,25c-0.8-0.1-1.6,0.4-1.7,1.2
			c-0.1,0.8,0.4,1.6,1.2,1.7c5.1,0.9,9.8,3.3,13.5,7c3.7,3.7,6.1,8.4,7,13.5c0.1,0.7,0.7,1.2,1.5,1.2c0.1,0,0.2,0,0.3,0
			C203.5,49.5,204.1,48.7,203.9,47.9z"/>
	</g>
</g>
<g>
	<path class="st1" d="M68.3,186.1H32.5c-0.9,0-1.6-0.7-1.6-1.6c0-0.9,0.7-1.6,1.6-1.6h35.7c0.9,0,1.6,0.7,1.6,1.6
		C69.8,185.4,69.1,186.1,68.3,186.1z"/>
	<path class="st1" d="M91.5,186.1h-6.3c-0.9,0-1.6-0.7-1.6-1.6c0-0.9,0.7-1.6,1.6-1.6h6.3c2.4,0,4.4-2,4.4-4.4v-6.1
		c0-2.2-0.9-4.4-2.5-6l-7-7c-0.1-0.1-0.2-0.3-0.3-0.5l-5.8-12.5c-1.2-2.5-3.7-4.1-6.5-4.1H9.1c-2.7,0-5,2.2-5,5v31.2
		c0,2.4,2,4.4,4.4,4.4h7c0.9,0,1.6,0.7,1.6,1.6c0,0.9-0.7,1.6-1.6,1.6h-7c-4.1,0-7.5-3.4-7.5-7.5v-31.2c0-4.5,3.6-8.1,8.1-8.1h64.6
		c4,0,7.7,2.3,9.3,6l5.7,12.2l6.8,6.8c2.2,2.2,3.4,5.2,3.4,8.2v6.1C99,182.8,95.6,186.1,91.5,186.1z"/>
	<path class="st1" d="M68.5,164.6H23.3c-0.9,0-1.6-0.7-1.6-1.6c0-0.9,0.7-1.6,1.6-1.6h45.2c0.9,0,1.6,0.7,1.6,1.6
		C70,163.9,69.3,164.6,68.5,164.6z"/>
	<g>
		<path class="st1" d="M68.3,186.1H32.5c-0.9,0-1.6-0.7-1.6-1.6c0-0.9,0.7-1.6,1.6-1.6h35.7c0.9,0,1.6,0.7,1.6,1.6
			C69.8,185.4,69.1,186.1,68.3,186.1z"/>
		<path class="st1" d="M24,194.6c-5.6,0-10.1-4.5-10.1-10.1c0-5.6,4.5-10.1,10.1-10.1c5.6,0,10.1,4.5,10.1,10.1
			C34.1,190.1,29.6,194.6,24,194.6z M24,177.6c-3.8,0-6.9,3.1-6.9,6.9s3.1,6.9,6.9,6.9s6.9-3.1,6.9-6.9S27.9,177.6,24,177.6z"/>
		<path class="st1" d="M76.8,194.6c-5.6,0-10.1-4.5-10.1-10.1c0-5.6,4.5-10.1,10.1-10.1c5.6,0,10.1,4.5,10.1,10.1
			C86.8,190.1,82.3,194.6,76.8,194.6z M76.8,177.6c-3.8,0-6.9,3.1-6.9,6.9s3.1,6.9,6.9,6.9s6.9-3.1,6.9-6.9S80.6,177.6,76.8,177.6z"
			/>
	</g>
</g>
<g>
	<g>
		<path class="st0" d="M60.2,51.2c0,3.2,1.7,6.1,4.5,7.6c1.2,0.7,2.7,1,4.1,1c4.7,0,8.6-3.9,8.6-8.6s-3.9-8.6-8.6-8.6
			c-1.6,0-3.1,0.4-4.5,1.3C61.7,45.5,60.2,48.2,60.2,51.2z M75.4,51.2c0,3.6-3,6.6-6.6,6.6c-1.1,0-2.2-0.3-3.1-0.8
			c-2.1-1.2-3.5-3.4-3.5-5.8c0-2.3,1.2-4.4,3.1-5.6c1-0.6,2.2-1,3.5-1C72.4,44.6,75.4,47.6,75.4,51.2z"/>
		<path class="st0" d="M41,25.9l-24.4,7.4c-0.4,0.1-0.6,0.4-0.7,0.8c-0.1,0.4,0.1,0.7,0.3,1c2.5,2.1,4.5,5,5.7,8.3h-1.5
			c-0.6,0-1,0.4-1,1v13.6c0,0.6,0.4,1,1,1h1.2c-1.2,3.3-3.1,6.2-5.7,8.3c-0.2,0.2-0.4,0.5-0.4,0.8c0,0.1,0,0.1,0,0.2
			c0.1,0.4,0.3,0.7,0.7,0.8l24.4,7.4c0.3,0.1,0.6,0,0.9-0.1c1.9-1.4,3.6-2.8,5.2-4.3c3.4,0.7,6.9,1.1,10.4,1.1
			c16.5,0,31.9-8.2,40.1-21.3c0.2-0.3,0.2-0.7,0-1.1C89,37.5,73.6,29.3,57.1,29.3c-3.4,0-6.8,0.3-10.1,1c-1.5-1.5-3.3-3-5.2-4.3
			C41.6,25.9,41.3,25.8,41,25.9z M46,32.2c0.2,0.2,0.6,0.4,0.9,0.3c3.4-0.7,6.8-1.1,10.2-1.1c15.6,0,30.1,7.6,38,19.8
			C87.2,63.4,72.7,71,57.1,71c-3.5,0-7-0.4-10.5-1.2c-0.2,0-0.4,0-0.5,0c-0.2,0.1-0.3,0.1-0.4,0.3c-1.4,1.5-3.1,2.9-4.9,4.2
			l-22.3-6.8c2.5-2.5,4.4-5.8,5.4-9.4c0-0.1,0-0.2,0-0.3c0-0.2-0.1-0.4-0.2-0.6c-0.2-0.2-0.5-0.4-0.8-0.4h-1.6V45.4h1.9
			c0.3,0,0.6-0.1,0.8-0.4c0.2-0.2,0.2-0.6,0.2-0.9c-1-3.6-2.9-6.9-5.4-9.4L41.1,28C42.9,29.3,44.5,30.7,46,32.2z"/>
		<path class="st0" d="M31.9,59.7c-0.5-0.2-1.1,0-1.3,0.5c-0.1,0.1-0.1,0.3-0.1,0.4c0,0.4,0.2,0.7,0.6,0.9
			c16.6,7.5,31.1,6.4,31.7,6.4c0.5,0,1-0.5,0.9-1.1c0-0.6-0.5-1-1.1-0.9C62.4,65.9,48,67,31.9,59.7z"/>
		<path class="st0" d="M16,44H8.1c-0.6,0-1,0.4-1,1s0.4,1,1,1H16c0.6,0,1-0.4,1-1C17,44.5,16.6,44,16,44z"/>
		<path class="st0" d="M16,50.2H2c-0.6,0-1,0.4-1,1s0.4,1,1,1h14c0.6,0,1-0.4,1-1S16.6,50.2,16,50.2z"/>
		<path class="st0" d="M17,57c0-0.6-0.4-1-1-1H8.1c-0.6,0-1,0.4-1,1c0,0.6,0.4,1,1,1H16C16.6,58,17,57.6,17,57z"/>
	</g>
</g>
</svg>
