<?xml version="1.0" standalone="no"?>
<!DOCTYPE svg PUBLIC "-//W3C//DTD SVG 20010904//EN"
 "http://www.w3.org/TR/2001/REC-SVG-20010904/DTD/svg10.dtd">
<svg version="1.0" xmlns="http://www.w3.org/2000/svg"
 width="1067.000000pt" height="1067.000000pt" viewBox="0 0 1067.000000 1067.000000"
 preserveAspectRatio="xMidYMid meet">
<metadata>
Created by potrace 1.11, written by Peter Selinger 2001-2013
</metadata>
<g transform="translate(0.000000,1067.000000) scale(0.100000,-0.100000)"
fill="#000000" stroke="none">
<path d="M5278 10595 c-2 -1 -34 -5 -73 -9 -38 -3 -88 -11 -110 -17 -55 -15
-126 -38 -150 -48 -79 -35 -98 -45 -245 -130 -41 -24 -106 -61 -145 -84 -38
-22 -90 -53 -115 -67 -25 -15 -65 -39 -90 -52 -25 -14 -130 -74 -235 -135
-300 -174 -517 -299 -560 -323 -49 -27 -147 -85 -197 -117 -21 -13 -40 -23
-42 -23 -2 0 -37 -19 -78 -43 -40 -24 -93 -55 -118 -69 -25 -14 -160 -92 -300
-173 -140 -81 -271 -157 -290 -168 -81 -46 -449 -258 -625 -360 -176 -103
-239 -139 -334 -193 -20 -11 -112 -65 -206 -119 -93 -54 -190 -110 -215 -124
-73 -40 -203 -145 -257 -208 -106 -123 -184 -271 -222 -423 -24 -99 -34 -220
-17 -220 7 0 8 -3 1 -8 -17 -12 -13 -4335 4 -4432 57 -322 240 -568 551 -742
25 -14 169 -97 320 -185 152 -87 282 -162 290 -166 8 -4 29 -16 45 -26 17 -11
46 -28 65 -39 19 -11 134 -77 255 -147 121 -70 240 -139 265 -153 70 -39 333
-191 350 -202 8 -6 24 -14 35 -20 11 -5 41 -22 67 -37 42 -25 184 -108 263
-153 17 -10 113 -66 215 -125 102 -59 208 -120 235 -135 28 -15 96 -55 153
-89 57 -34 105 -61 107 -61 2 0 39 -21 82 -46 43 -26 92 -55 108 -64 88 -50
512 -295 653 -377 239 -140 390 -191 579 -195 118 -2 209 9 310 38 104 30 170
63 442 221 119 69 237 138 263 152 26 14 102 58 170 97 119 70 412 239 473
274 17 10 138 79 270 155 132 76 257 149 277 162 21 12 40 23 43 23 3 0 24 11
46 26 22 14 55 33 72 43 18 10 106 61 197 113 91 53 181 105 200 115 19 11 91
53 160 93 68 40 138 81 155 90 16 9 107 61 200 115 151 87 259 150 735 425 69
40 145 84 170 98 249 139 431 371 499 637 5 22 14 54 18 70 4 17 9 1043 10
2280 3 2428 5 2303 -48 2465 -79 238 -260 455 -479 571 -25 14 -56 32 -70 40
-21 14 -428 249 -530 307 -19 11 -75 43 -125 72 -49 29 -125 73 -168 97 -43
24 -95 54 -115 67 -20 12 -62 36 -92 53 -30 17 -95 54 -145 83 -49 29 -110 64
-135 78 -25 13 -49 28 -55 32 -5 4 -30 18 -55 32 -25 14 -142 81 -260 150
-118 69 -235 136 -260 150 -25 14 -133 76 -240 138 -107 62 -208 121 -225 130
-44 25 -210 121 -380 220 -82 48 -170 98 -195 112 -25 14 -117 67 -205 118
-88 51 -180 104 -205 118 -25 13 -49 28 -55 32 -5 5 -35 22 -65 39 -185 105
-302 149 -440 166 -63 8 -177 14 -182 10z"/>
</g>
</svg>
