<?xml version="1.0" standalone="no"?>
<!DOCTYPE svg PUBLIC "-//W3C//DTD SVG 20010904//EN"
 "http://www.w3.org/TR/2001/REC-SVG-20010904/DTD/svg10.dtd">
<svg version="1.0" xmlns="http://www.w3.org/2000/svg"
 width="310.000000pt" height="310.000000pt" viewBox="0 0 310.000000 310.000000"
 preserveAspectRatio="xMidYMid meet">
<metadata>
Created by potrace 1.11, written by Peter Selinger 2001-2013
</metadata>
<g transform="translate(0.000000,310.000000) scale(0.100000,-0.100000)"
fill="#000000" stroke="none">
<path d="M585 2652 c-46 -16 -83 -43 -111 -83 l-29 -42 0 -971 c0 -965 0 -971
21 -1011 11 -22 41 -53 65 -70 l44 -30 976 0 976 0 41 29 c23 16 52 45 65 65
l22 36 3 953 c1 616 -1 967 -8 991 -12 47 -55 95 -106 121 -38 18 -69 19 -989
19 -522 -1 -959 -4 -970 -7z m1145 -363 c129 -18 243 -65 358 -146 l62 -44
-57 -72 c-31 -40 -60 -74 -63 -77 -3 -3 -28 -33 -56 -66 l-51 -62 -29 23
c-229 179 -515 131 -628 -105 -29 -60 -31 -73 -31 -175 0 -103 2 -114 32 -175
17 -36 42 -77 55 -91 38 -42 106 -87 159 -104 92 -31 239 -22 319 20 30 15 30
17 30 100 0 61 -4 85 -12 86 -7 1 -65 3 -128 4 -63 1 -120 3 -125 4 -7 1 -11
51 -10 139 l0 137 321 3 321 2 0 -317 0 -318 -41 -31 c-102 -77 -228 -132
-372 -164 -120 -26 -315 -22 -423 9 -250 73 -429 245 -502 486 -30 97 -32 315
-5 410 108 373 458 582 876 524z"/>
</g>
</svg>
