<?xml version="1.0" encoding="utf-8"?>
<!-- Generator: Adobe Illustrator 21.0.0, SVG Export Plug-In . SVG Version: 6.00 Build 0)  -->
<svg version="1.1" xmlns="http://www.w3.org/2000/svg" xmlns:xlink="http://www.w3.org/1999/xlink" x="0px" y="0px"
	 viewBox="0 0 200 200" style="enable-background:new 0 0 200 200;" xml:space="preserve">
<style type="text/css">
	.st0{fill:#EEEEEE;}
	.st1{display:none;}
	.st2{display:inline;}
	.st3{fill:#B0B0B0;}
	.st4{display:inline;fill:#B0B0B0;}
</style>
<g id="Layer_5">
	<rect class="st0" width="200" height="200"/>
</g>
<g id="Layer_1" class="st1">
	<g id="g8" class="st2">
		<g id="g10">
			<path id="path12" class="st3" d="M43.1,98c0.3-20.1,18.8-37.8,39-37.1c9.7-0.4,18.7,3.7,26.1,9.7c-3.2,3.6-6.4,7-9.9,10.3
				c-8.9-6.1-21.5-7.9-30.4-0.8c-12.7,8.8-13.3,29.5-1.1,39c11.9,10.8,34.3,5.4,37.6-11.1c-7.4-0.1-14.9,0-22.3-0.2
				c0-4.4,0-8.9,0-13.3c12.4,0,24.9,0,37.3,0c0.7,10.4-0.6,21.6-7.1,30.2c-9.7,13.7-29.2,17.7-44.5,11.8
				C52.6,130.6,41.8,114.4,43.1,98z"/>
			<path id="path14" class="st3" d="M143.7,83.1c3.7,0,7.4,0,11.1,0c0,3.7,0,7.4,0.1,11.2c3.7,0,7.4,0,11.2,0.1c0,3.7,0,7.4,0,11.1
				c-3.7,0-7.4,0-11.2,0.1c0,3.7,0,7.4-0.1,11.2c-3.7,0-7.4,0-11.1,0c0-3.7,0-7.4-0.1-11.1c-3.7,0-7.4-0.1-11.2-0.1
				c0-3.7,0-7.4,0-11.1c3.7,0,7.4,0,11.2-0.1C143.6,90.6,143.6,86.8,143.7,83.1z"/>
		</g>
	</g>
</g>
<g id="Layer_1_copy" class="st1">
	<path class="st4" d="M102.1,94.1c0,4.7,0,9.3,0,14c7.8,0.2,15.7,0.1,23.5,0.2c-3.5,17.3-27.1,23-39.6,11.6
		c-12.8-9.9-12.2-31.7,1.1-41c9.3-7.4,22.6-5.6,32,0.9c3.7-3.4,7.1-7,10.4-10.8c-7.8-6.2-17.3-10.6-27.4-10.1
		c-21.2-0.7-40.6,17.8-41,39c-1.3,17.3,10,34.3,26.1,40.4c16,6.2,36.5,2,46.7-12.4c6.8-9.1,8.2-20.8,7.4-31.7
		C128.3,94,115.2,94,102.1,94.1z"/>
</g>
<g id="Layer_2">
	<path class="st3" d="M38.8,74.8c0.7-1.1,1.7-1.6,2.9-1.7c0.6,0,1.2-0.1,1.8-0.1c4.9,0,9.9,0,14.8-0.1c2.5,0,4.2,1.1,5.3,3.5
		c3,6.2,6,12.3,9.1,18.3c1.3,2.5,3,4.9,5.3,6.7c0.5,0.4,1.1,0.8,1.7,1c1.4,0.5,2.5,0.1,3.2-1.2c1.1-2,1.2-4.1,1.4-6.3
		C85,90,85,85,84,80.1c-0.6-2.9-2.4-4.5-5.2-5.1c-1.5-0.3-1.6-0.7-0.5-1.8c1.2-1.3,2.7-2.2,4.4-2.4c6.6-1,13.2-1.1,19.7-0.1
		c3.2,0.5,4.5,1.6,4.8,5.5c0.2,2.9,0,5.9-0.1,8.9c0,4-0.1,7.9-0.1,11.9c0,1.2,0.3,2.4,0.7,3.4c0.9,2.3,2.7,2.7,4.5,1.1
		c3.1-2.5,5.1-5.9,7.2-9.2c3.2-5,5.8-10.3,8-15.8c1.2-2.9,1.7-3.2,4.8-3.3c6.1,0,12.2-0.1,18.4-0.2c0.9,0,1.9,0.1,2.8,0.4
		c1.7,0.5,2.3,1.5,2,3.3c-0.5,2.8-1.8,5.2-3.3,7.4c-4,5.7-8.1,11.3-12.2,16.9c-0.9,1.3-1.8,2.5-2.6,3.9c-1.3,2.3-1.1,4.3,0.7,6.2
		c2.7,2.8,5.5,5.4,8.2,8.1c3,3,5.8,6,7.9,9.7c0.4,0.7,0.8,1.6,1,2.4c0.8,2.9-0.6,4.5-3.5,4.8c-2.6,0.3-5.2,0.2-7.7,0.3
		c-3.3,0.1-6.7,0.2-10,0.2c-2.8,0-5.4-1-7.5-2.8c-2.3-2-4.4-4.3-6.5-6.5c-1.6-1.6-3.1-3.2-4.7-4.8c-0.4-0.4-1-0.7-1.5-1
		c-1.4-0.7-2.4-0.6-3.6,0.5c-2.1,1.9-2.6,4.4-2.9,7c-0.1,1.1-0.1,2.3-0.2,3.4c-0.2,2.3-1.3,3.6-3.6,3.8c-10,0.8-19.5-0.4-28.1-6.3
		c-5.7-4-10.4-8.8-14.5-14.3c-8.8-11.8-15.6-24.7-21.5-38.1c-0.1-0.3-0.3-0.7-0.5-1C38.8,75.9,38.8,75.4,38.8,74.8z"/>
</g>
<g id="Layer_3" class="st1">
	<path class="st2" d="M134.3,27c0,0.4-0.1,0.8-0.1,1.2c0,6.5,0,12.9,0,19.4c0,0.9-0.3,1.1-1.1,1.1c-3.5,0-7,0-10.6,0
		c-1.2,0-2.4,0.2-3.6,0.4c-2.2,0.4-3.8,2.2-3.9,4.7c-0.2,4.6-0.2,9.1-0.2,13.7c0,0.8,0.5,0.7,1,0.7c5.7,0,11.5,0,17.2,0
		c0.4,0,0.8,0,1.3,0c-0.8,7.3-1.5,14.5-2.3,21.7c-5.8,0-11.4,0-17.2,0c0,0.5,0,0.9,0,1.4c0,20.2,0,40.4,0,60.6c0,0.4,0,0.7,0,1.1
		c-7.8,0-15.7,0-23.5,0c0-1.9,0-3.8,0-5.6c0-18.6,0-37.2,0-55.8c0-0.5,0-1,0-1.6c-5.3,0-10.5,0-15.7,0c0-0.4-0.1-0.8-0.1-1.1
		c0-6.5,0-13,0-19.5c0-0.9,0.3-1.1,1.1-1.1c4.5,0,9,0,13.5,0c1,0,1.2-0.3,1.2-1.2c0-5.8,0-11.7,0.2-17.5c0.2-4.2,1-8.4,3-12.2
		c2.2-4.2,5.5-7.1,10-8.5c2.5-0.8,5.1-1.1,7.6-1.7c0.4-0.1,0.7-0.2,1.1-0.2C120.3,27,127.3,27,134.3,27z"/>
</g>
<g id="Layer_4" class="st1">
	<path class="st2" d="M25,145.1c17.8,1.6,33.9-2.8,48.2-13.8c-7-0.5-13.3-2.6-18.9-6.8c-5.5-4.2-9.4-9.6-11.6-16
		c2.4,0,4.8,0.1,7.2,0c2.3-0.1,4.6-0.5,7-1C47.3,105,39.9,99.6,35,91c-2.9-5.2-4.6-11.9-4.1-16.3c2.3,0.9,4.6,1.9,7,2.6
		c2.4,0.7,4.9,1,7.3,1.3c-14.6-12.3-17.8-27-9.9-44.6c18.2,21.4,40.9,33.1,68.8,35c-0.2-2.1-0.5-4-0.6-6
		c-0.5-10.3,3.1-19.1,10.6-26.1c8.3-7.7,18.3-10.2,29.3-8.2c6.4,1.2,12,4.2,16.5,8.9c0.7,0.7,1.3,0.9,2.3,0.7
		c6.2-1.4,12.2-3.5,17.8-6.7c0.6-0.3,1.1-0.6,2-1c-2.6,7.8-7.3,13.5-13.7,18c6.3-0.5,12.1-2.3,18.2-4.8c-3.1,4.6-6.4,8.5-10.2,12
		c-1.6,1.5-3.3,2.9-5.1,4.2c-0.9,0.7-1.2,1.4-1.2,2.5c0.4,9.5-0.9,18.9-3.4,28.1c-2.2,7.8-5.3,15.3-9.4,22.4
		c-4.4,7.7-9.6,14.6-15.9,20.8c-8.5,8.4-18.3,14.9-29.3,19.4c-10.4,4.2-21.3,6.4-32.6,6.8c-7.9,0.3-15.7-0.2-23.5-1.9
		c-7.8-1.7-15.3-4.1-22.4-7.8c-2.9-1.5-5.8-3.1-8.7-4.7C24.9,145.4,24.9,145.2,25,145.1z"/>
</g>
</svg>
