<?xml version="1.0" encoding="utf-8"?>
<!-- Generator: Adobe Illustrator 21.0.0, SVG Export Plug-In . SVG Version: 6.00 Build 0)  -->
<svg version="1.1" id="Layer_1" xmlns="http://www.w3.org/2000/svg" xmlns:xlink="http://www.w3.org/1999/xlink" x="0px" y="0px"
	 viewBox="0 0 100 100" style="enable-background:new 0 0 100 100;" xml:space="preserve">
<style type="text/css">
	.st0{fill:none;stroke:#2090FF;stroke-width:6;stroke-miterlimit:10;}
	.st1{fill:#2090FF;}
	.st2{fill:#2090FF;stroke:#2090FF;stroke-miterlimit:10;}
</style>
<path class="st0" d="M-4,56.3c0,16.6-13,30-29,30s-29-13.4-29-30s29.2-46.1,29.2-46.1S-4,39.7-4,56.3z"/>
<g>
	<path class="st0" d="M129.7,33.8c2.9-7.3,7.9-13.6,14.4-18"/>
	<path class="st0" d="M128.5,37.2c0.3-1.2,0.7-2.3,1.2-3.5"/>
	<path class="st0" d="M156.5,85.8c-13.2-3.3-23.7-13.3-27.7-26.2"/>
	<path class="st0" d="M202.6,61.5c-4.7,12.6-15.7,22.2-29.2,24.8"/>
	<path class="st0" d="M185.9,14.4c8.5,5,14.9,13.1,17.6,22.8"/>
	<g>
		<path class="st1" d="M187.4,41.4h4.1l6.5,8.3v-8.3h4.3v15.8h-3.8l-6.7-8.6v8.6h-4.3V41.4z"/>
		<path class="st1" d="M204.2,53.6c0-2.5,1.9-3.8,4.8-3.8c1.1,0,2.2,0.2,2.9,0.5v-0.2c0-1.3-0.8-2-2.4-2c-1.3,0-2.3,0.2-3.4,0.7
			l-0.9-3c1.4-0.6,2.8-0.9,4.9-0.9c2.2,0,3.7,0.5,4.6,1.5c0.9,0.9,1.3,2.2,1.3,3.9v7h-4.2v-1.3c-0.8,0.9-2,1.5-3.6,1.5
			C206,57.4,204.2,56.1,204.2,53.6z M212,52.8v-0.6c-0.4-0.2-1-0.3-1.7-0.3c-1.2,0-2,0.6-2,1.6c0,0.8,0.6,1.3,1.5,1.3
			C211.1,54.8,212,54,212,52.8z"/>
	</g>
	<g>
		<path class="st1" d="M116.9,48.3c0-4.6,3.5-8.2,8.3-8.2c3.2,0,5.2,1.4,6.6,3.3l-3.2,2.5c-0.9-1.1-2-1.8-3.5-1.8
			c-2.2,0-3.8,1.9-3.8,4.2c0,2.4,1.6,4.2,3.8,4.2c1.6,0,2.6-0.8,3.6-1.9l3.3,2.3c-1.5,2-3.5,3.6-7,3.6
			C120.5,56.5,116.9,53,116.9,48.3z"/>
		<path class="st1" d="M133,52.6c0-2.5,1.9-3.8,4.8-3.8c1.1,0,2.2,0.2,2.9,0.5v-0.2c0-1.3-0.8-2-2.4-2c-1.3,0-2.3,0.2-3.4,0.7
			l-0.9-3c1.4-0.6,2.8-0.9,4.9-0.9c2.2,0,3.7,0.5,4.6,1.5c0.9,0.9,1.3,2.2,1.3,3.9v7h-4.2v-1.3c-0.8,0.9-2,1.5-3.6,1.5
			C134.8,56.4,133,55.1,133,52.6z M140.7,51.8v-0.6c-0.4-0.2-1-0.3-1.7-0.3c-1.2,0-2,0.6-2,1.6c0,0.8,0.6,1.3,1.5,1.3
			C139.9,53.8,140.7,53,140.7,51.8z"/>
	</g>
	<g>
		<path class="st1" d="M149.4,0.4h4.6l3.8,6.1l3.8-6.1h4.6v15.8h-4.3V7.1l-4,6.2h-0.1l-4-6.1v9h-4.3V0.4z"/>
		<path class="st1" d="M168.6,18.4l1.4-2.8c1.3,0.7,2.6,1.1,4.3,1.1c2.1,0,3.2-1.1,3.2-3v-0.5c-0.9,1-2,1.8-3.8,1.8
			c-3,0-5.4-2.2-5.4-5.7c0-3.5,2.5-5.7,5.3-5.7c1.8,0,2.9,0.7,3.8,1.7V4h4.3v9.3c0,2.2-0.5,3.8-1.6,4.9c-1.1,1.1-2.8,1.7-5.4,1.7
			C172.3,19.8,170.3,19.3,168.6,18.4z M177.4,9.4c0-1.4-1-2.3-2.5-2.3c-1.5,0-2.5,1-2.5,2.4c0,1.4,1,2.3,2.5,2.3
			C176.4,11.8,177.4,10.8,177.4,9.4z"/>
	</g>
	<g>
		<path class="st1" d="M159.4,78.4h4.4v6.4l5.4-6.4h5.2l-6,6.8l6.2,9h-5.2l-4-5.9l-1.6,1.8v4.1h-4.4V78.4z"/>
	</g>
</g>
<g id="XMLID_511_">
	<g>
		<path class="st2" d="M86.5,50c2-2.6,2.9-5.9,2.3-9.2c-0.6-3.4-2.7-6.3-5.7-8c1-3.4,0.3-7.1-1.8-10c-2.1-2.9-5.6-4.6-9.2-4.6
			c-0.5,0-1,0-1.5,0.1c-1.8-4.1-5.9-7-10.5-7c-3.7,0-7,1.8-9.1,4.5c-2.1-2.7-5.4-4.5-9.1-4.5c-4.7,0-8.8,2.8-10.5,7
			c-0.5-0.1-1-0.1-1.5-0.1c-3.6,0-7,1.7-9.2,4.6c-2.2,2.9-2.8,6.6-1.8,10c-3,1.6-5.1,4.5-5.7,8c-0.6,3.3,0.3,6.6,2.3,9.2
			c-2,2.6-2.9,5.9-2.3,9.2c0.6,3.4,2.7,6.3,5.7,8c-1,3.4-0.3,7.1,1.8,10c2.1,2.9,5.6,4.6,9.2,4.6c0.5,0,1,0,1.5-0.1
			c1.8,4.1,5.9,7,10.5,7c3.7,0,7-1.8,9.1-4.5c2.1,2.7,5.4,4.5,9.1,4.5c4.7,0,8.8-2.8,10.5-7c0.5,0.1,1,0.1,1.5,0.1
			c3.6,0,7-1.7,9.2-4.6c2.2-2.9,2.8-6.6,1.8-10c3-1.6,5.1-4.5,5.7-8C89.4,55.9,88.5,52.5,86.5,50z M48.6,77.2c0,3.7-3,6.7-6.7,6.7
			c-3.2,0-6-2.3-6.6-5.4l0-0.2c-0.1-0.4-0.1-0.7-0.1-1.1c0-1.1,0.3-2.1,0.7-3.1c1.8,1.1,3.8,1.7,6,1.7l0-4.7c-1.8,0-3.5-0.7-4.7-2
			c-1.3-1.3-2-2.9-2-4.7l-4.7,0c0,2.3,0.7,4.5,2,6.4c-1.2,1.8-1.9,4-2,6.2c-0.2,0-0.4,0-0.6,0c-2.1,0-4.1-1-5.4-2.7
			c-1.6-2.1-1.8-4.9-0.5-7.2l0.6-1l-1-2.2l-1.1-0.3c-2.5-0.7-4.3-2.7-4.7-5.2c-0.4-2.2,0.3-4.4,1.9-6h11c0.5,2.2,1.5,4.1,3.1,5.7
			c2.1,2.1,4.9,3.3,8.1,3.3h6.7L48.6,77.2L48.6,77.2z M48.6,56.7h-6.7c-3.6,0-6.5-2.8-6.7-6.3c0,0,0,0,0,0c0-0.1,0-0.2,0-0.3
			c0-1.8,0.7-3.5,2-4.7l-3.3-3.3c-1.6,1.6-2.7,3.6-3.1,5.7h-11c-1.6-1.5-2.3-3.8-1.9-6c0.5-2.5,2.3-4.5,4.7-5.2l1.1-0.3l1-2.2
			l-0.6-1c-1.3-2.3-1.1-5.1,0.5-7.2c1.3-1.7,3.2-2.7,5.4-2.7c0.2,0,0.4,0,0.6,0c0,2.3,0.7,4.4,2,6.2c-1.3,1.9-2,4.1-2,6.4l4.7,0
			c0-1.8,0.7-3.5,2-4.7c1.3-1.3,2.9-2,4.7-2c0,0,0-4.7,0-4.7c-2.1,0-4.2,0.6-6,1.7c-0.5-0.9-0.7-2-0.7-3.1c0-0.4,0-0.7,0.1-1.1
			l0-0.2c0.6-3.1,3.4-5.4,6.6-5.4c3.7,0,6.7,3,6.7,6.7V56.7z M53.4,22.8c0-3.7,3-6.7,6.7-6.7c3.2,0,6,2.3,6.6,5.4l0,0.2
			c0.1,0.4,0.1,0.7,0.1,1.1c0,1.1-0.3,2.1-0.7,3.1c-1.8-1.1-3.8-1.7-6-1.7l0,4.7c1.8,0,3.5,0.7,4.7,2c1.3,1.3,2,2.9,2,4.7l4.7,0
			c0-2.3-0.7-4.5-2-6.4c1.2-1.8,1.9-4,2-6.2c0.2,0,0.4,0,0.6,0c2.1,0,4.1,1,5.4,2.7c1.6,2.1,1.8,4.9,0.5,7.2l-0.6,1l0.5,1.1l0.5,1.1
			l1.1,0.3c2.5,0.7,4.3,2.7,4.7,5.2c0.4,2.2-0.3,4.4-1.9,6h-11c-0.5-2.2-1.5-4.1-3.1-5.7c-2.1-2.1-4.9-3.3-8.1-3.3h-6.7L53.4,22.8
			L53.4,22.8z M84.2,58.3c-0.5,2.5-2.3,4.5-4.7,5.2l-1.1,0.3l-1,2.2l0.6,1c1.3,2.3,1.1,5.1-0.5,7.2C76.2,76,74.2,77,72.1,77
			c-0.2,0-0.4,0-0.6,0c0-2.3-0.7-4.4-2-6.2c1.3-1.9,2-4.1,2-6.4l-4.7,0c0,1.8-0.7,3.5-2,4.7c-1.3,1.3-2.9,2-4.7,2c0,0,0,4.7,0,4.7
			c2.1,0,4.2-0.6,6-1.7c0.5,0.9,0.7,2,0.7,3.1c0,0.4,0,0.8-0.1,1.1l0,0.2c-0.6,3.1-3.4,5.4-6.6,5.4c-3.7,0-6.7-3-6.7-6.7V43.3h6.7
			c3.6,0,6.5,2.8,6.7,6.3c0,0,0,0,0,0c0,0.1,0,0.2,0,0.3c0,1.8-0.7,3.5-2,4.7l3.3,3.3c1.6-1.6,2.7-3.6,3.1-5.7h11
			C83.8,53.9,84.6,56.1,84.2,58.3z"/>
	</g>
</g>
</svg>
