<?xml version="1.0" encoding="utf-8"?>
<!-- Generator: Adobe Illustrator 21.0.0, SVG Export Plug-In . SVG Version: 6.00 Build 0)  -->
<svg version="1.1" id="Layer_1" xmlns="http://www.w3.org/2000/svg" xmlns:xlink="http://www.w3.org/1999/xlink" x="0px" y="0px"
	 viewBox="0 0 450 90" style="enable-background:new 0 0 450 90;" xml:space="preserve">
<style type="text/css">
	.st0{fill:#383838;}
</style>
<path id="XMLID_6_" class="st0" d="M113.6,45.2v5.5h15C127.9,57.4,122,63,114.4,63c-8.2,0-14.6-6.5-14.6-14.9s6-14.9,14.6-14.9
	c5.4,0,9.5,2.6,11.8,6.3h6.7c-2.5-6.9-9.9-11.9-18.2-11.9c-12.2,0-20.8,8.9-20.8,20.5s8.9,20.5,20.5,20.5c11.8,0,20.2-8.9,20.2-20.5
	c0-1,0-1.8-0.2-2.8L113.6,45.2L113.6,45.2z M148.8,67.9h5.7V28.2h-5.7V67.9z M170.3,67.9h5.7V50.7h18.7v-5.5H176V33.6h19.9v-5.5
	h-25.6L170.3,67.9L170.3,67.9z M208.9,67.9h5.7V50.7h21v17.2h5.7V28.2h-32.4V67.9z M214.6,33.8h21v11.4h-21
	C214.6,45.2,214.6,33.8,214.6,33.8z M277.7,48.5l-19.4-21h-1.2v40.4h5.7v-27L277,56.4h1.2l14.3-15.5V68h5.7V27.5h-1L277.7,48.5z
	 M314.1,67.9h5.7V28.2h-5.7V67.9z M362.3,28.2v27l-25.6-27.6h-1.1V68h5.7V40.8l25.6,27.6h1.2V28.2H362.3z"/>
</svg>
